sipo-piso-shift-registers/simulation/qsim/sipo-piso-shift-registers.msim.vcd
$comment
	File created using the following command:
		vcd file sipo-piso-shift-registers.msim.vcd -direction
$end
$date
	Mon Nov 25 15:37:26 2024
$end
$version
	ModelSim Version 10.5b
$end
$timescale
	1ps
$end

$scope module SIPOregister_vlg_vec_tst $end
$var reg 1 ! CLK $end
$var reg 1 " D $end
$var wire 1 # O0 $end
$var wire 1 $ O1 $end
$var wire 1 % O2 $end
$var wire 1 & O3 $end
$var wire 1 ' O4 $end
$var wire 1 ( O5 $end
$var wire 1 ) O6 $end
$var wire 1 * O7 $end

$scope module i1 $end
$var wire 1 + gnd $end
$var wire 1 , vcc $end
$var wire 1 - unknown $end
$var tri1 1 . devclrn $end
$var tri1 1 / devpor $end
$var tri1 1 0 devoe $end
$var wire 1 1 ~QUARTUS_CREATED_GND~I_combout $end
$var wire 1 2 ~QUARTUS_CREATED_UNVM~~busy $end
$var wire 1 3 ~QUARTUS_CREATED_ADC1~~eoc $end
$var wire 1 4 ~QUARTUS_CREATED_ADC2~~eoc $end
$var wire 1 5 O0~output_o $end
$var wire 1 6 O1~output_o $end
$var wire 1 7 O2~output_o $end
$var wire 1 8 O3~output_o $end
$var wire 1 9 O4~output_o $end
$var wire 1 : O5~output_o $end
$var wire 1 ; O6~output_o $end
$var wire 1 < O7~output_o $end
$var wire 1 = CLK~input_o $end
$var wire 1 > CLK~inputclkctrl_outclk $end
$var wire 1 ? D~input_o $end
$var wire 1 @ inst3~feeder_combout $end
$var wire 1 A inst3~q $end
$var wire 1 B inst2~feeder_combout $end
$var wire 1 C inst2~q $end
$var wire 1 D inst~feeder_combout $end
$var wire 1 E inst~q $end
$var wire 1 F inst4~feeder_combout $end
$var wire 1 G inst4~q $end
$var wire 1 H inst5~feeder_combout $end
$var wire 1 I inst5~q $end
$var wire 1 J inst6~feeder_combout $end
$var wire 1 K inst6~q $end
$var wire 1 L inst7~feeder_combout $end
$var wire 1 M inst7~q $end
$var wire 1 N inst8~feeder_combout $end
$var wire 1 O inst8~q $end
$upscope $end
$upscope $end
$enddefinitions $end
#0
$dumpvars
0!
0"
0#
0$
0%
0&
0'
0(
0)
0*
0+
1,
x-
1.
1/
10
01
z2
z3
z4
05
06
07
08
09
0:
0;
0<
0=
0>
0?
0@
0A
0B
0C
0D
0E
0F
0G
0H
0I
0J
0K
0L
0M
0N
0O
$end
#100000
1!
1"
1?
1=
1>
1@
#200000
0!
0"
0?
0=
0>
0@
#300000
1!
1"
1?
1=
1>
1@
#400000
0!
0"
0?
0=
0>
0@
#500000
1!
1"
1?
1=
1>
1@
#600000
0!
0"
0?
0=
0>
0@
#700000
1!
1"
1?
1=
1>
1@
#800000
0!
0"
0?
0=
0>
0@
#900000
1!
1"
1?
1=
1>
1@
