stopwatch/simulation/qsim/CRONOMETRO.msim.vcd
$comment
	File created using the following command:
		vcd file CRONOMETRO.msim.vcd -direction
$end
$date
	Mon Dec 16 20:58:58 2024
$end
$version
	ModelSim Version 10.5b
$end
$timescale
	1ps
$end

$scope module contador_minutos_2_vhd_vec_tst $end
$var wire 1 ! carry_in $end
$var wire 1 " carry_out $end
$var wire 1 # clk $end
$var wire 1 $ count_min [3] $end
$var wire 1 % count_min [2] $end
$var wire 1 & count_min [1] $end
$var wire 1 ' count_min [0] $end
$var wire 1 ( pause_signal $end
$var wire 1 ) reset $end

$scope module i1 $end
$var wire 1 * gnd $end
$var wire 1 + vcc $end
$var wire 1 , unknown $end
$var wire 1 - devoe $end
$var wire 1 . devclrn $end
$var wire 1 / devpor $end
$var wire 1 0 ww_devoe $end
$var wire 1 1 ww_devclrn $end
$var wire 1 2 ww_devpor $end
$var wire 1 3 ww_clk $end
$var wire 1 4 ww_reset $end
$var wire 1 5 ww_carry_in $end
$var wire 1 6 ww_pause_signal $end
$var wire 1 7 ww_count_min [3] $end
$var wire 1 8 ww_count_min [2] $end
$var wire 1 9 ww_count_min [1] $end
$var wire 1 : ww_count_min [0] $end
$var wire 1 ; ww_carry_out $end
$var wire 1 < \~QUARTUS_CREATED_ADC1~_CHSEL_bus\ [4] $end
$var wire 1 = \~QUARTUS_CREATED_ADC1~_CHSEL_bus\ [3] $end
$var wire 1 > \~QUARTUS_CREATED_ADC1~_CHSEL_bus\ [2] $end
$var wire 1 ? \~QUARTUS_CREATED_ADC1~_CHSEL_bus\ [1] $end
$var wire 1 @ \~QUARTUS_CREATED_ADC1~_CHSEL_bus\ [0] $end
$var wire 1 A \~QUARTUS_CREATED_ADC2~_CHSEL_bus\ [4] $end
$var wire 1 B \~QUARTUS_CREATED_ADC2~_CHSEL_bus\ [3] $end
$var wire 1 C \~QUARTUS_CREATED_ADC2~_CHSEL_bus\ [2] $end
$var wire 1 D \~QUARTUS_CREATED_ADC2~_CHSEL_bus\ [1] $end
$var wire 1 E \~QUARTUS_CREATED_ADC2~_CHSEL_bus\ [0] $end
$var wire 1 F \reset~inputclkctrl_INCLK_bus\ [3] $end
$var wire 1 G \reset~inputclkctrl_INCLK_bus\ [2] $end
$var wire 1 H \reset~inputclkctrl_INCLK_bus\ [1] $end
$var wire 1 I \reset~inputclkctrl_INCLK_bus\ [0] $end
$var wire 1 J \clk~inputclkctrl_INCLK_bus\ [3] $end
$var wire 1 K \clk~inputclkctrl_INCLK_bus\ [2] $end
$var wire 1 L \clk~inputclkctrl_INCLK_bus\ [1] $end
$var wire 1 M \clk~inputclkctrl_INCLK_bus\ [0] $end
$var wire 1 N \~QUARTUS_CREATED_GND~I_combout\ $end
$var wire 1 O \~QUARTUS_CREATED_UNVM~~busy\ $end
$var wire 1 P \~QUARTUS_CREATED_ADC1~~eoc\ $end
$var wire 1 Q \~QUARTUS_CREATED_ADC2~~eoc\ $end
$var wire 1 R \count_min[0]~output_o\ $end
$var wire 1 S \count_min[1]~output_o\ $end
$var wire 1 T \count_min[2]~output_o\ $end
$var wire 1 U \count_min[3]~output_o\ $end
$var wire 1 V \carry_out~output_o\ $end
$var wire 1 W \clk~input_o\ $end
$var wire 1 X \clk~inputclkctrl_outclk\ $end
$var wire 1 Y \counter[0]~3_combout\ $end
$var wire 1 Z \reset~input_o\ $end
$var wire 1 [ \reset~inputclkctrl_outclk\ $end
$var wire 1 \ \carry_in~input_o\ $end
$var wire 1 ] \pause_signal~input_o\ $end
$var wire 1 ^ \carry_pulse~feeder_combout\ $end
$var wire 1 _ \carry_pulse~q\ $end
$var wire 1 ` \process_0~0_combout\ $end
$var wire 1 a \counter[2]~1_combout\ $end
$var wire 1 b \counter~2_combout\ $end
$var wire 1 c \counter~0_combout\ $end
$var wire 1 d \Equal0~0_combout\ $end
$var wire 1 e \carry_out~2_combout\ $end
$var wire 1 f \carry_out~reg0_q\ $end
$var wire 1 g counter [3] $end
$var wire 1 h counter [2] $end
$var wire 1 i counter [1] $end
$var wire 1 j counter [0] $end
$var wire 1 k \ALT_INV_reset~inputclkctrl_outclk\ $end
$upscope $end
$upscope $end
$enddefinitions $end
#0
$dumpvars
0!
0"
0#
0(
0)
0*
1+
x,
1-
1.
1/
10
11
12
03
04
05
06
0;
0N
zO
zP
zQ
0R
0S
0T
0U
0V
0W
0X
1Y
0Z
0[
0\
0]
0^
0_
0`
0a
0b
0c
0d
0e
0f
1k
07
08
09
0:
0g
0h
0i
0j
1J
1K
1L
0M
1F
1G
1H
0I
0<
0=
0>
0?
0@
0A
0B
0C
0D
0E
0$
0%
0&
0'
$end
#100000
1#
13
1W
1M
1X
#200000
0#
03
0W
0M
0X
#300000
1#
13
1W
1M
1X
#400000
0#
03
0W
0M
0X
#500000
1#
13
1W
1M
1X
#600000
0#
03
0W
0M
0X
#700000
1#
13
1W
1M
1X
#800000
0#
03
0W
0M
0X
#900000
1#
13
1W
1M
1X
#1000000
0#
03
0W
0M
0X
#1100000
1#
13
1W
1M
1X
#1200000
0#
03
0W
0M
0X
#1300000
1#
13
1W
1M
1X
#1400000
0#
03
0W
0M
0X
#1500000
1#
13
1W
1M
1X
#1600000
0#
03
0W
0M
0X
#1700000
1#
13
1W
1M
1X
#1800000
0#
03
0W
0M
0X
#1900000
1#
13
1W
1M
1X
#2000000
0#
03
0W
0M
0X
#2100000
1#
13
1W
1M
1X
#2200000
0#
03
0W
0M
0X
#2300000
1#
13
1W
1M
1X
#2400000
0#
03
0W
0M
0X
#2500000
1#
13
1W
1M
1X
#2600000
0#
03
0W
0M
0X
#2700000
1#
13
1W
1M
1X
#2800000
0#
03
0W
0M
0X
#2900000
1#
13
1W
1M
1X
#3000000
0#
03
0W
0M
0X
#3100000
1#
13
1W
1M
1X
#3200000
0#
03
0W
0M
0X
#3300000
1#
13
1W
1M
1X
#3400000
0#
03
0W
0M
0X
#3500000
1#
13
1W
1M
1X
#3600000
0#
03
0W
0M
0X
#3700000
1#
13
1W
1M
1X
#3800000
0#
03
0W
0M
0X
#3900000
1#
13
1W
1M
1X
#4000000
0#
03
0W
0M
0X
#4100000
1#
13
1W
1M
1X
#4200000
0#
03
0W
0M
0X
#4300000
1#
13
1W
1M
1X
#4400000
0#
03
0W
0M
0X
#4500000
1#
13
1W
1M
1X
#4600000
0#
03
0W
0M
0X
#4700000
1#
13
1W
1M
1X
#4800000
0#
03
0W
0M
0X
#4900000
1#
13
1W
1M
1X
#5000000
0#
1!
03
15
1\
0W
0M
1^
1`
0X
#5100000
1#
13
1W
1M
1X
1_
1j
1R
0Y
1c
0`
1:
1'
#5200000
0#
03
0W
0M
0X
#5300000
1#
13
1W
1M
1X
#5400000
0#
03
0W
0M
0X
#5500000
1#
13
1W
1M
1X
#5600000
0#
03
0W
0M
0X
#5700000
1#
13
1W
1M
1X
#5800000
0#
03
0W
0M
0X
#5900000
1#
13
1W
1M
1X
#6000000
0#
03
0W
0M
0X
#6100000
1#
13
1W
1M
1X
#6200000
0#
03
0W
0M
0X
#6300000
1#
13
1W
1M
1X
#6400000
0#
03
0W
0M
0X
#6500000
1#
13
1W
1M
1X
#6600000
0#
03
0W
0M
0X
#6700000
1#
13
1W
1M
1X
#6800000
0#
03
0W
0M
0X
#6900000
1#
13
1W
1M
1X
#7000000
0#
03
0W
0M
0X
#7100000
1#
13
1W
1M
1X
#7200000
0#
03
0W
0M
0X
#7300000
1#
13
1W
1M
1X
#7400000
0#
03
0W
0M
0X
#7500000
1#
13
1W
1M
1X
#7600000
0#
03
0W
0M
0X
#7700000
1#
13
1W
1M
1X
#7800000
0#
03
0W
0M
0X
#7900000
1#
13
1W
1M
1X
#8000000
0#
03
0W
0M
0X
#8100000
1#
13
1W
1M
1X
#8200000
0#
03
0W
0M
0X
#8300000
1#
13
1W
1M
1X
#8400000
0#
03
0W
0M
0X
#8500000
1#
13
1W
1M
1X
#8600000
0#
03
0W
0M
0X
#8700000
1#
13
1W
1M
1X
#8800000
0#
03
0W
0M
0X
#8900000
1#
13
1W
1M
1X
#9000000
0#
03
0W
0M
0X
#9100000
1#
13
1W
1M
1X
#9200000
0#
03
0W
0M
0X
#9300000
1#
13
1W
1M
1X
#9400000
0#
03
0W
0M
0X
#9500000
1#
13
1W
1M
1X
#9600000
0#
03
0W
0M
0X
#9700000
1#
13
1W
1M
1X
#9800000
0#
03
0W
0M
0X
#9900000
1#
13
1W
1M
1X
#10000000
0#
0!
03
05
0\
0W
0M
0^
0X
#10100000
1#
13
1W
1M
1X
0_
#10200000
0#
03
0W
0M
0X
#10300000
1#
13
1W
1M
1X
#10400000
0#
03
0W
0M
0X
#10500000
1#
13
1W
1M
1X
#10600000
0#
03
0W
0M
0X
#10700000
1#
13
1W
1M
1X
#10800000
0#
03
0W
0M
0X
#10900000
1#
13
1W
1M
1X
#11000000
0#
03
0W
0M
0X
#11100000
1#
13
1W
1M
1X
#11200000
0#
03
0W
0M
0X
#11300000
1#
13
1W
1M
1X
#11400000
0#
03
0W
0M
0X
#11500000
1#
13
1W
1M
1X
#11600000
0#
03
0W
0M
0X
#11700000
1#
13
1W
1M
1X
#11800000
0#
03
0W
0M
0X
#11900000
1#
13
1W
1M
1X
#12000000
0#
03
0W
0M
0X
#12100000
1#
13
1W
1M
1X
#12200000
0#
03
0W
0M
0X
#12300000
1#
13
1W
1M
1X
#12400000
0#
03
0W
0M
0X
#12500000
1#
13
1W
1M
1X
#12600000
0#
03
0W
0M
0X
#12700000
1#
13
1W
1M
1X
#12800000
0#
03
0W
0M
0X
#12900000
1#
13
1W
1M
1X
#13000000
0#
03
0W
0M
0X
#13100000
1#
13
1W
1M
1X
#13200000
0#
03
0W
0M
0X
#13300000
1#
13
1W
1M
1X
#13400000
0#
03
0W
0M
0X
#13500000
1#
13
1W
1M
1X
#13600000
0#
03
0W
0M
0X
#13700000
1#
13
1W
1M
1X
#13800000
0#
03
0W
0M
0X
#13900000
1#
13
1W
1M
1X
#14000000
0#
03
0W
0M
0X
#14100000
1#
13
1W
1M
1X
#14200000
0#
03
0W
0M
0X
#14300000
1#
13
1W
1M
1X
#14400000
0#
03
0W
0M
0X
#14500000
1#
13
1W
1M
1X
#14600000
0#
03
0W
0M
0X
#14700000
1#
13
1W
1M
1X
#14800000
0#
03
0W
0M
0X
#14900000
1#
13
1W
1M
1X
#15000000
0#
1!
03
15
1\
0W
0M
1^
1`
0X
#15100000
1#
13
1W
1M
1X
1_
0j
1i
1S
0R
1Y
0`
19
0:
0'
1&
#15200000
0#
03
0W
0M
0X
#15300000
1#
13
1W
1M
1X
#15400000
0#
03
0W
0M
0X
#15500000
1#
13
1W
1M
1X
#15600000
0#
03
0W
0M
0X
#15700000
1#
13
1W
1M
1X
#15800000
0#
03
0W
0M
0X
#15900000
1#
13
1W
1M
1X
#16000000
0#
03
0W
0M
0X
#16100000
1#
13
1W
1M
1X
#16200000
0#
03
0W
0M
0X
#16300000
1#
13
1W
1M
1X
#16400000
0#
03
0W
0M
0X
#16500000
1#
13
1W
1M
1X
#16600000
0#
03
0W
0M
0X
#16700000
1#
13
1W
1M
1X
#16800000
0#
03
0W
0M
0X
#16900000
1#
13
1W
1M
1X
#17000000
0#
03
0W
0M
0X
#17100000
1#
13
1W
1M
1X
#17200000
0#
03
0W
0M
0X
#17300000
1#
13
1W
1M
1X
#17400000
0#
03
0W
0M
0X
#17500000
1#
13
1W
1M
1X
#17600000
0#
03
0W
0M
0X
#17700000
1#
13
1W
1M
1X
#17800000
0#
03
0W
0M
0X
#17900000
1#
13
1W
1M
1X
#18000000
0#
03
0W
0M
0X
#18100000
1#
13
1W
1M
1X
#18200000
0#
03
0W
0M
0X
#18300000
1#
13
1W
1M
1X
#18400000
0#
03
0W
0M
0X
#18500000
1#
13
1W
1M
1X
#18600000
0#
03
0W
0M
0X
#18700000
1#
13
1W
1M
1X
#18800000
0#
03
0W
0M
0X
#18900000
1#
13
1W
1M
1X
#19000000
0#
03
0W
0M
0X
#19100000
1#
13
1W
1M
1X
#19200000
0#
03
0W
0M
0X
#19300000
1#
13
1W
1M
1X
#19400000
0#
03
0W
0M
0X
#19500000
1#
13
1W
1M
1X
#19600000
0#
03
0W
0M
0X
#19700000
1#
13
1W
1M
1X
#19800000
0#
03
0W
0M
0X
#19900000
1#
13
1W
1M
1X
#20000000
0#
0!
03
05
0\
0W
0M
0^
0X
#20100000
1#
13
1W
1M
1X
0_
#20200000
0#
03
0W
0M
0X
#20300000
1#
13
1W
1M
1X
#20400000
0#
03
0W
0M
0X
#20500000
1#
13
1W
1M
1X
#20600000
0#
03
0W
0M
0X
#20700000
1#
13
1W
1M
1X
#20800000
0#
03
0W
0M
0X
#20900000
1#
13
1W
1M
1X
#21000000
0#
03
0W
0M
0X
#21100000
1#
13
1W
1M
1X
#21200000
0#
03
0W
0M
0X
#21300000
1#
13
1W
1M
1X
#21400000
0#
03
0W
0M
0X
#21500000
1#
13
1W
1M
1X
#21600000
0#
03
0W
0M
0X
#21700000
1#
13
1W
1M
1X
#21800000
0#
03
0W
0M
0X
#21900000
1#
13
1W
1M
1X
#22000000
0#
03
0W
0M
0X
#22100000
1#
13
1W
1M
1X
#22200000
0#
03
0W
0M
0X
#22300000
1#
13
1W
1M
1X
#22400000
0#
03
0W
0M
0X
#22500000
1#
13
1W
1M
1X
#22600000
0#
03
0W
0M
0X
#22700000
1#
13
1W
1M
1X
#22800000
0#
03
0W
0M
0X
#22900000
1#
13
1W
1M
1X
#23000000
0#
03
0W
0M
0X
#23100000
1#
13
1W
1M
1X
#23200000
0#
03
0W
0M
0X
#23300000
1#
13
1W
1M
1X
#23400000
0#
03
0W
0M
0X
#23500000
1#
13
1W
1M
1X
#23600000
0#
03
0W
0M
0X
#23700000
1#
13
1W
1M
1X
#23800000
0#
03
0W
0M
0X
#23900000
1#
13
1W
1M
1X
#24000000
0#
03
0W
0M
0X
#24100000
1#
13
1W
1M
1X
#24200000
0#
03
0W
0M
0X
#24300000
1#
13
1W
1M
1X
#24400000
0#
03
0W
0M
0X
#24500000
1#
13
1W
1M
1X
#24600000
0#
03
0W
0M
0X
#24700000
1#
13
1W
1M
1X
#24800000
0#
03
0W
0M
0X
#24900000
1#
13
1W
1M
1X
#25000000
0#
1!
03
15
1\
0W
0M
1^
1`
0X
#25100000
1#
13
1W
1M
1X
1_
1j
1R
0Y
1a
0c
0`
1:
0a
1'
#25200000
0#
03
0W
0M
0X
#25300000
1#
13
1W
1M
1X
#25400000
0#
03
0W
0M
0X
#25500000
1#
13
1W
1M
1X
#25600000
0#
03
0W
0M
0X
#25700000
1#
13
1W
1M
1X
#25800000
0#
03
0W
0M
0X
#25900000
1#
13
1W
1M
1X
#26000000
0#
03
0W
0M
0X
#26100000
1#
13
1W
1M
1X
#26200000
0#
03
0W
0M
0X
#26300000
1#
13
1W
1M
1X
#26400000
0#
03
0W
0M
0X
#26500000
1#
13
1W
1M
1X
#26600000
0#
03
0W
0M
0X
#26700000
1#
13
1W
1M
1X
#26800000
0#
03
0W
0M
0X
#26900000
1#
13
1W
1M
1X
#27000000
0#
03
0W
0M
0X
#27100000
1#
13
1W
1M
1X
#27200000
0#
03
0W
0M
0X
#27300000
1#
13
1W
1M
1X
#27400000
0#
03
0W
0M
0X
#27500000
1#
13
1W
1M
1X
#27600000
0#
03
0W
0M
0X
#27700000
1#
13
1W
1M
1X
#27800000
0#
03
0W
0M
0X
#27900000
1#
13
1W
1M
1X
#28000000
0#
03
0W
0M
0X
#28100000
1#
13
1W
1M
1X
#28200000
0#
03
0W
0M
0X
#28300000
1#
13
1W
1M
1X
#28400000
0#
03
0W
0M
0X
#28500000
1#
13
1W
1M
1X
#28600000
0#
03
0W
0M
0X
#28700000
1#
13
1W
1M
1X
#28800000
0#
03
0W
0M
0X
#28900000
1#
13
1W
1M
1X
#29000000
0#
03
0W
0M
0X
#29100000
1#
13
1W
1M
1X
#29200000
0#
03
0W
0M
0X
#29300000
1#
13
1W
1M
1X
#29400000
0#
03
0W
0M
0X
#29500000
1#
13
1W
1M
1X
#29600000
0#
03
0W
0M
0X
#29700000
1#
13
1W
1M
1X
#29800000
0#
03
0W
0M
0X
#29900000
1#
13
1W
1M
1X
#30000000
0#
0!
03
05
0\
0W
0M
0^
0X
#30100000
1#
13
1W
1M
1X
0_
#30200000
0#
03
0W
0M
0X
#30300000
1#
13
1W
1M
1X
#30400000
0#
03
0W
0M
0X
#30500000
1#
13
1W
1M
1X
#30600000
0#
03
0W
0M
0X
#30700000
1#
13
1W
1M
1X
#30800000
0#
03
0W
0M
0X
#30900000
1#
13
1W
1M
1X
#31000000
0#
03
0W
0M
0X
#31100000
1#
13
1W
1M
1X
#31200000
0#
03
0W
0M
0X
#31300000
1#
13
1W
1M
1X
#31400000
0#
03
0W
0M
0X
#31500000
1#
13
1W
1M
1X
#31600000
0#
03
0W
0M
0X
#31700000
1#
13
1W
1M
1X
#31800000
0#
03
0W
0M
0X
#31900000
1#
13
1W
1M
1X
#32000000
0#
03
0W
0M
0X
#32100000
1#
13
1W
1M
1X
#32200000
0#
03
0W
0M
0X
#32300000
1#
13
1W
1M
1X
#32400000
0#
03
0W
0M
0X
#32500000
1#
13
1W
1M
1X
#32600000
0#
03
0W
0M
0X
#32700000
1#
13
1W
1M
1X
#32800000
0#
03
0W
0M
0X
#32900000
1#
13
1W
1M
1X
#33000000
0#
03
0W
0M
0X
#33100000
1#
13
1W
1M
1X
#33200000
0#
03
0W
0M
0X
#33300000
1#
13
1W
1M
1X
#33400000
0#
03
0W
0M
0X
#33500000
1#
13
1W
1M
1X
#33600000
0#
03
0W
0M
0X
#33700000
1#
13
1W
1M
1X
#33800000
0#
03
0W
0M
0X
#33900000
1#
13
1W
1M
1X
#34000000
0#
03
0W
0M
0X
#34100000
1#
13
1W
1M
1X
#34200000
0#
03
0W
0M
0X
#34300000
1#
13
1W
1M
1X
#34400000
0#
03
0W
0M
0X
#34500000
1#
13
1W
1M
1X
#34600000
0#
03
0W
0M
0X
#34700000
1#
13
1W
1M
1X
#34800000
0#
03
0W
0M
0X
#34900000
1#
13
1W
1M
1X
#35000000
0#
1!
03
15
1\
0W
0M
1^
1`
1a
0X
#35100000
1#
13
1W
1M
1X
1_
0j
1h
0i
0S
1T
0R
1Y
0`
09
18
0:
0'
0&
1%
#35200000
0#
03
0W
0M
0X
#35300000
1#
13
1W
1M
1X
#35400000
0#
03
0W
0M
0X
#35500000
1#
13
1W
1M
1X
#35600000
0#
03
0W
0M
0X
#35700000
1#
13
1W
1M
1X
#35800000
0#
03
0W
0M
0X
#35900000
1#
13
1W
1M
1X
#36000000
0#
03
0W
0M
0X
#36100000
1#
13
1W
1M
1X
#36200000
0#
03
0W
0M
0X
#36300000
1#
13
1W
1M
1X
#36400000
0#
03
0W
0M
0X
#36500000
1#
13
1W
1M
1X
#36600000
0#
03
0W
0M
0X
#36700000
1#
13
1W
1M
1X
#36800000
0#
03
0W
0M
0X
#36900000
1#
13
1W
1M
1X
#37000000
0#
03
0W
0M
0X
#37100000
1#
13
1W
1M
1X
#37200000
0#
03
0W
0M
0X
#37300000
1#
13
1W
1M
1X
#37400000
0#
03
0W
0M
0X
#37500000
1#
13
1W
1M
1X
#37600000
0#
03
0W
0M
0X
#37700000
1#
13
1W
1M
1X
#37800000
0#
03
0W
0M
0X
#37900000
1#
13
1W
1M
1X
#38000000
0#
03
0W
0M
0X
#38100000
1#
13
1W
1M
1X
#38200000
0#
03
0W
0M
0X
#38300000
1#
13
1W
1M
1X
#38400000
0#
03
0W
0M
0X
#38500000
1#
13
1W
1M
1X
#38600000
0#
03
0W
0M
0X
#38700000
1#
13
1W
1M
1X
#38800000
0#
03
0W
0M
0X
#38900000
1#
13
1W
1M
1X
#39000000
0#
03
0W
0M
0X
#39100000
1#
13
1W
1M
1X
#39200000
0#
03
0W
0M
0X
#39300000
1#
13
1W
1M
1X
#39400000
0#
03
0W
0M
0X
#39500000
1#
13
1W
1M
1X
#39600000
0#
03
0W
0M
0X
#39700000
1#
13
1W
1M
1X
#39800000
0#
03
0W
0M
0X
#39900000
1#
13
1W
1M
1X
#40000000
0#
0!
03
05
0\
0W
0M
0^
0X
#40100000
1#
13
1W
1M
1X
0_
#40200000
0#
03
0W
0M
0X
#40300000
1#
13
1W
1M
1X
#40400000
0#
03
0W
0M
0X
#40500000
1#
13
1W
1M
1X
#40600000
0#
03
0W
0M
0X
#40700000
1#
13
1W
1M
1X
#40800000
0#
03
0W
0M
0X
#40900000
1#
13
1W
1M
1X
#41000000
0#
03
0W
0M
0X
#41100000
1#
13
1W
1M
1X
#41200000
0#
03
0W
0M
0X
#41300000
1#
13
1W
1M
1X
#41400000
0#
03
0W
0M
0X
#41500000
1#
13
1W
1M
1X
#41600000
0#
03
0W
0M
0X
#41700000
1#
13
1W
1M
1X
#41800000
0#
03
0W
0M
0X
#41900000
1#
13
1W
1M
1X
#42000000
0#
03
0W
0M
0X
#42100000
1#
13
1W
1M
1X
#42200000
0#
03
0W
0M
0X
#42300000
1#
13
1W
1M
1X
#42400000
0#
03
0W
0M
0X
#42500000
1#
13
1W
1M
1X
#42600000
0#
03
0W
0M
0X
#42700000
1#
13
1W
1M
1X
#42800000
0#
03
0W
0M
0X
#42900000
1#
13
1W
1M
1X
#43000000
0#
03
0W
0M
0X
#43100000
1#
13
1W
1M
1X
#43200000
0#
03
0W
0M
0X
#43300000
1#
13
1W
1M
1X
#43400000
0#
03
0W
0M
0X
#43500000
1#
13
1W
1M
1X
#43600000
0#
03
0W
0M
0X
#43700000
1#
13
1W
1M
1X
#43800000
0#
03
0W
0M
0X
#43900000
1#
13
1W
1M
1X
#44000000
0#
03
0W
0M
0X
#44100000
1#
13
1W
1M
1X
#44200000
0#
03
0W
0M
0X
#44300000
1#
13
1W
1M
1X
#44400000
0#
03
0W
0M
0X
#44500000
1#
13
1W
1M
1X
#44600000
0#
03
0W
0M
0X
#44700000
1#
13
1W
1M
1X
#44800000
0#
03
0W
0M
0X
#44900000
1#
13
1W
1M
1X
#45000000
0#
1!
03
15
1\
0W
0M
1^
1`
0X
#45100000
1#
13
1W
1M
1X
1_
1j
1R
0Y
1c
0`
1:
1'
#45200000
0#
03
0W
0M
0X
#45300000
1#
13
1W
1M
1X
#45400000
0#
03
0W
0M
0X
#45500000
1#
13
1W
1M
1X
#45600000
0#
03
0W
0M
0X
#45700000
1#
13
1W
1M
1X
#45800000
0#
03
0W
0M
0X
#45900000
1#
13
1W
1M
1X
#46000000
0#
03
0W
0M
0X
#46100000
1#
13
1W
1M
1X
#46200000
0#
03
0W
0M
0X
#46300000
1#
13
1W
1M
1X
#46400000
0#
03
0W
0M
0X
#46500000
1#
13
1W
1M
1X
#46600000
0#
03
0W
0M
0X
#46700000
1#
13
1W
1M
1X
#46800000
0#
03
0W
0M
0X
#46900000
1#
13
1W
1M
1X
#47000000
0#
03
0W
0M
0X
#47100000
1#
13
1W
1M
1X
#47200000
0#
03
0W
0M
0X
#47300000
1#
13
1W
1M
1X
#47400000
0#
03
0W
0M
0X
#47500000
1#
13
1W
1M
1X
#47600000
0#
03
0W
0M
0X
#47700000
1#
13
1W
1M
1X
#47800000
0#
03
0W
0M
0X
#47900000
1#
13
1W
1M
1X
#48000000
0#
03
0W
0M
0X
#48100000
1#
13
1W
1M
1X
#48200000
0#
03
0W
0M
0X
#48300000
1#
13
1W
1M
1X
#48400000
0#
03
0W
0M
0X
#48500000
1#
13
1W
1M
1X
#48600000
0#
03
0W
0M
0X
#48700000
1#
13
1W
1M
1X
#48800000
0#
03
0W
0M
0X
#48900000
1#
13
1W
1M
1X
#49000000
0#
03
0W
0M
0X
#49100000
1#
13
1W
1M
1X
#49200000
0#
03
0W
0M
0X
#49300000
1#
13
1W
1M
1X
#49400000
0#
03
0W
0M
0X
#49500000
1#
13
1W
1M
1X
#49600000
0#
03
0W
0M
0X
#49700000
1#
13
1W
1M
1X
#49800000
0#
03
0W
0M
0X
#49900000
1#
13
1W
1M
1X
#50000000
0#
0!
03
05
0\
0W
0M
0^
0X
#50100000
1#
13
1W
1M
1X
0_
#50200000
0#
03
0W
0M
0X
#50300000
1#
13
1W
1M
1X
#50400000
0#
03
0W
0M
0X
#50500000
1#
13
1W
1M
1X
#50600000
0#
03
0W
0M
0X
#50700000
1#
13
1W
1M
1X
#50800000
0#
03
0W
0M
0X
#50900000
1#
13
1W
1M
1X
#51000000
0#
03
0W
0M
0X
#51100000
1#
13
1W
1M
1X
#51200000
0#
03
0W
0M
0X
#51300000
1#
13
1W
1M
1X
#51400000
0#
03
0W
0M
0X
#51500000
1#
13
1W
1M
1X
#51600000
0#
03
0W
0M
0X
#51700000
1#
13
1W
1M
1X
#51800000
0#
03
0W
0M
0X
#51900000
1#
13
1W
1M
1X
#52000000
0#
03
0W
0M
0X
#52100000
1#
13
1W
1M
1X
#52200000
0#
03
0W
0M
0X
#52300000
1#
13
1W
1M
1X
#52400000
0#
03
0W
0M
0X
#52500000
1#
13
1W
1M
1X
#52600000
0#
03
0W
0M
0X
#52700000
1#
13
1W
1M
1X
#52800000
0#
03
0W
0M
0X
#52900000
1#
13
1W
1M
1X
#53000000
0#
03
0W
0M
0X
#53100000
1#
13
1W
1M
1X
#53200000
0#
03
0W
0M
0X
#53300000
1#
13
1W
1M
1X
#53400000
0#
03
0W
0M
0X
#53500000
1#
13
1W
1M
1X
#53600000
0#
03
0W
0M
0X
#53700000
1#
13
1W
1M
1X
#53800000
0#
03
0W
0M
0X
#53900000
1#
13
1W
1M
1X
#54000000
0#
03
0W
0M
0X
#54100000
1#
13
1W
1M
1X
#54200000
0#
03
0W
0M
0X
#54300000
1#
13
1W
1M
1X
#54400000
0#
03
0W
0M
0X
#54500000
1#
13
1W
1M
1X
#54600000
0#
03
0W
0M
0X
#54700000
1#
13
1W
1M
1X
#54800000
0#
03
0W
0M
0X
#54900000
1#
13
1W
1M
1X
#55000000
0#
1!
03
15
1\
0W
0M
1^
1`
0X
#55100000
1#
13
1W
1M
1X
1_
0j
1i
1S
0R
1Y
0`
19
0:
0'
1&
#55200000
0#
03
0W
0M
0X
#55300000
1#
13
1W
1M
1X
#55400000
0#
03
0W
0M
0X
#55500000
1#
13
1W
1M
1X
#55600000
0#
03
0W
0M
0X
#55700000
1#
13
1W
1M
1X
#55800000
0#
03
0W
0M
0X
#55900000
1#
13
1W
1M
1X
#56000000
0#
03
0W
0M
0X
#56100000
1#
13
1W
1M
1X
#56200000
0#
03
0W
0M
0X
#56300000
1#
13
1W
1M
1X
#56400000
0#
03
0W
0M
0X
#56500000
1#
13
1W
1M
1X
#56600000
0#
03
0W
0M
0X
#56700000
1#
13
1W
1M
1X
#56800000
0#
03
0W
0M
0X
#56900000
1#
13
1W
1M
1X
#57000000
0#
03
0W
0M
0X
#57100000
1#
13
1W
1M
1X
#57200000
0#
03
0W
0M
0X
#57300000
1#
13
1W
1M
1X
#57400000
0#
03
0W
0M
0X
#57500000
1#
13
1W
1M
1X
#57600000
0#
03
0W
0M
0X
#57700000
1#
13
1W
1M
1X
#57800000
0#
03
0W
0M
0X
#57900000
1#
13
1W
1M
1X
#58000000
0#
03
0W
0M
0X
#58100000
1#
13
1W
1M
1X
#58200000
0#
03
0W
0M
0X
#58300000
1#
13
1W
1M
1X
#58400000
0#
03
0W
0M
0X
#58500000
1#
13
1W
1M
1X
#58600000
0#
03
0W
0M
0X
#58700000
1#
13
1W
1M
1X
#58800000
0#
03
0W
0M
0X
#58900000
1#
13
1W
1M
1X
#59000000
0#
03
0W
0M
0X
#59100000
1#
13
1W
1M
1X
#59200000
0#
03
0W
0M
0X
#59300000
1#
13
1W
1M
1X
#59400000
0#
03
0W
0M
0X
#59500000
1#
13
1W
1M
1X
#59600000
0#
03
0W
0M
0X
#59700000
1#
13
1W
1M
1X
#59800000
0#
03
0W
0M
0X
#59900000
1#
13
1W
1M
1X
#60000000
0#
0!
03
05
0\
0W
0M
0^
0X
#60100000
1#
13
1W
1M
1X
0_
#60200000
0#
03
0W
0M
0X
#60300000
1#
13
1W
1M
1X
#60400000
0#
03
0W
0M
0X
#60500000
1#
13
1W
1M
1X
#60600000
0#
03
0W
0M
0X
#60700000
1#
13
1W
1M
1X
#60800000
0#
03
0W
0M
0X
#60900000
1#
13
1W
1M
1X
#61000000
0#
03
0W
0M
0X
#61100000
1#
13
1W
1M
1X
#61200000
0#
03
0W
0M
0X
#61300000
1#
13
1W
1M
1X
#61400000
0#
03
0W
0M
0X
#61500000
1#
13
1W
1M
1X
#61600000
0#
03
0W
0M
0X
#61700000
1#
13
1W
1M
1X
#61800000
0#
03
0W
0M
0X
#61900000
1#
13
1W
1M
1X
#62000000
0#
03
0W
0M
0X
#62100000
1#
13
1W
1M
1X
#62200000
0#
03
0W
0M
0X
#62300000
1#
13
1W
1M
1X
#62400000
0#
03
0W
0M
0X
#62500000
1#
13
1W
1M
1X
#62600000
0#
03
0W
0M
0X
#62700000
1#
13
1W
1M
1X
#62800000
0#
03
0W
0M
0X
#62900000
1#
13
1W
1M
1X
#63000000
0#
03
0W
0M
0X
#63100000
1#
13
1W
1M
1X
#63200000
0#
03
0W
0M
0X
#63300000
1#
13
1W
1M
1X
#63400000
0#
03
0W
0M
0X
#63500000
1#
13
1W
1M
1X
#63600000
0#
03
0W
0M
0X
#63700000
1#
13
1W
1M
1X
#63800000
0#
03
0W
0M
0X
#63900000
1#
13
1W
1M
1X
#64000000
0#
03
0W
0M
0X
#64100000
1#
13
1W
1M
1X
#64200000
0#
03
0W
0M
0X
#64300000
1#
13
1W
1M
1X
#64400000
0#
03
0W
0M
0X
#64500000
1#
13
1W
1M
1X
#64600000
0#
03
0W
0M
0X
#64700000
1#
13
1W
1M
1X
